Evolución del número de afiliados por provincia. Índice con base 100 en febrero (dato junio)							Cambio del número de afiliados desde el inicio del coronavirus				Evolución diaria del número de afiliados a la Seguridad Social			Evolución de la tasa de paro				Variación en el número de horas de trabajo por el covid-19, en porcentaje (primer trimestre)			Tasa de paro por países (mayo)				Evolución del número de parados registrados		
Afiliados a la Seguridad Social							Afiliación por provincias				Afiliación diaria			Tasa de paro				Destrucción de empleo			Tasa de paro				Parados registrados		
Fuente: Seguridad Social							Fuente: Seguridad social				Fuente: Seguridad Social			Fuente: INE				Fuente: Eurostat			Fuente: Eurostat				Fuente: SEPE		
ID_Provincia_Evolucion	Febrero	Marzo	Abril	Mayo	Junio		ID_Provincia_Cambio	Provincia	Variación		Periodo_Afiliacion	Afiliados		Trimestre_Paro	Trimestre_Paro_Generico	Tasa_Paro		Pais_Numero_Empleados	Variacion_Empleados		Pais_Paro	Dato_Paro			Mes_Paro	Mes_Paro_Generico	Paro_Registrado
A CORUÑA	100	99,10198852	96,2947475	96,18853581	96,82690313		15	A CORUÑA	-3,811464192		02/01/2020	19153282		T1 2002	1/2002	11,55		Irlanda	2,7		Rep. Checa	2,6			ene/96	enero/1996	2995774
ALICANTE	100	98,48331015	93,91745638	94,99766448	96,01276645		3	ALACANT - ALICANTE	-5,002335521		03/01/2020	19101342		T2 2002	4/2002	11,15		Chipre	0,7		Polonia	3			feb/96	febrero/1996	2994922
ALBACETE	100	98,65973937	96,4222606	98,54137823	102,300952		2	ALBACETE	-1,458621772		07/01/2020	19139784		T3 2002	7/2002	11,49		Rumanía	0,4		Alemania	4,2			mar/96	marzo/1996	2969472
ALMERÍA	100	98,94356434	95,00381584	94,13841443	91,83869317		4	ALMERIA	-5,861585565		08/01/2020	19155356		T4 2002	10/2002	11,61		Finlandia	0,4		Malta	4,2			abr/96	abril/1996	2891580
ÁLAVA	100	98,99970003	96,56343741	96,93183807	96,34332817		1	ARABA/ALAVA	-3,068161934		09/01/2020	19155932		T1 2003	1/2003	11,99		Bulgaria	0,1		P. Bajos	4,3			may/96	mayo/1996	2813180
ASTURIAS	100	99,03613117	96,68682141	96,58052005	97,30067254		33	ASTURIAS	-3,419479952		10/01/2020	19135186		T2 2003	4/2003	11,28		Austria	-0,3		Bulgaria	4,4			jun/96	junio/1996	2783076
ÁVILA	100	98,57942324	96,67959758	97,10007245	98,72314131		5	AVILA	-2,899927547		13/01/2020	19163621		T3 2003	7/2003	11,3		Luxemburgo	-0,6		Eslovenia	4,8			jul/96	julio/1996	2712456
BADAJOZ	100	98,67584594	96,50932601	98,06848601	99,76788534		6	BADAJOZ	-1,931513992		14/01/2020	19172293		T4 2003	10/2003	11,37		Polonia	-0,6		Rumanía	5,2			ago/96	agosto/1996	2677610
BARCELONA	100	98,70094391	96,11392053	95,92615143	95,94212101		8	BARCELONA	-4,073848566		15/01/2020	19178259		T1 2004	1/2004	11,5		Dinamarca	-0,7		Irlanda	5,3			sep/96	septiembre/1996	2735843
VIZCAYA	100	99,33981186	97,49484616	97,20667791	96,82141678		48	BIZKAIA	-2,793322091		16/01/2020	19183972		T2 2004	4/2004	11,09		Croacia	-1		Bélgica	5,5			oct/96	octubre/1996	2775951
BURGOS	100	99,03590568	96,52439962	96,41316737	97,04421686		9	BURGOS	-3,586832628		17/01/2020	19162071		T3 2004	7/2004	10,74		Eslovenia	-1		Austria	5,7			nov/96	noviembre/1996	2796229
CÁCERES	100	99,24673475	97,22730413	99,36003287	101,0418463		10	CACERES	-0,63996713		20/01/2020	19180257		T4 2004	10/2004	10,53		P. Bajos	-1,2		Dinamarca	5,8			dic/96	diciembre/1996	2747049
CÁDIZ	100	97,25059854	92,96924638	95,06882488	97,89584054		11	CADIZ	-4,931175124		21/01/2020	19181859		T1 2005	1/2005	10,17		Reino Unido	-1,2		Eslovaquia	6,6			ene/97	enero/1997	2782276
CANTABRIA	100	99,02452382	96,29295851	96,84474904	96,9895331		39	CANTABRIA	-3,155250964		22/01/2020	19188440		T2 2005	4/2005	9,32		Noruega	-1,3		Portugal	7			feb/97	febrero/1997	2787662
CASTELLÓN	100	98,3394527	94,69497588	93,49469705	93,56873915		12	CASTELLO	-6,50530295		23/01/2020	19189141		T3 2005	7/2005	8,41		Hungría	-1,4		Unión europea	7,1			mar/97	marzo/1997	2751554
CEUTA	100	98,9441707	94,93781065	93,15195401	93,54269229		51	CEUTA	-6,848045985		24/01/2020	19176279		T4 2005	10/2005	8,71		Suecia	-1,4		Finlandia	7,3			abr/97	abril/1997	2699192
CIUDAD REAL	100	97,92951539	94,58915762	95,84122404	97,53064444		13	CIUDAD REAL	-4,158775955		27/01/2020	19195488		T1 2006	1/2006	9,03		Alemania	-1,7		Francia	7,7			may/97	mayo/1997	2638519
CÓRDOBA	100	97,23772909	93,12486179	94,28333449	95,00210496		14	CORDOBA	-5,716665513		28/01/2020	19199237		T2 2006	4/2006	8,44		Letonia	-1,9		Luxemburgo	7,7			jun/97	junio/1997	2614285
CUENCA	100	98,92112964	96,89984735	97,77096139	101,9248865		16	CUENCA	-2,229038614		29/01/2020	19201590		T3 2006	7/2006	8,08		Lituania	-2,1		Eurozona	7,8			jul/97	julio/1997	2519688
GUIPÚZCOA	100	99,71012649	98,01335391	97,62373171	97,26352707		20	GIPUZKOA	-2,376268293		30/01/2020	19199383		T4 2006	10/2006	8,26		UE	-2,6		Croacia	8,8			ago/97	agosto/1997	2491577
GIRONA	100	99,44570201	96,4143623	96,86992419	99,03280705		17	GIRONA	-3,130075807		31/01/2020	19041595		T1 2007	1/2007	8,42		Francia	-3		Italia	8,8			sep/97	septiembre/1997	2550636
GRANADA	100	97,54839468	93,68525814	94,53595334	94,81984144		18	GRANADA	-5,464046657		03/02/2020	19166876		T2 2007	4/2007	7,93		Eurozona	-3,3		Suecia	9,2			oct/97	octubre/1997	2577052
GUADALAJARA	100	98,49361273	95,68846084	98,23728914	99,21061757		19	GUADALAJARA	-1,762710862		04/02/2020	19177908		T3 2007	7/2007	8,01		Estonia	-3,4		Lituania	9,4			nov/97	noviembre/1997	2600732
HUELVA	100	105,9273989	105,3504789	106,1473262	95,98507449		21	HUELVA	6,147326179		05/02/2020	19189372		T4 2007	10/2007	8,57		Portugal	-3,9		Letonia	10,1			dic/97	diciembre/1997	2566904
HUESCA	100	97,93574707	95,3695203	98,89048161	101,6823611		22	HUESCA	-1,109518394		06/02/2020	19196858		T1 2008	1/2008	9,6		Rep Checa	-4		Grecia	15,5			ene/98	enero/1998	2577189
BALEARES	100	102,270553	104,3432353	110,2956909	112,12188		7	ILLES BALEARS	10,2956909		07/02/2020	19186030		T2 2008	4/2008	10,36		España	-4,2		España	15,6			feb/98	febrero/1998	2553346
JAÉN	100	96,35268876	92,28900991	93,21510513	94,70223193		23	JAEN	-6,784894875		10/02/2020	19212891		T3 2008	7/2008	11,23		Grecia	-4,8						mar/98	marzo/1998	2524004
LA RIOJA	100	98,65500473	96,33562874	98,05476208	97,19852659		26	LA RIOJA	-1,945237918		11/02/2020	19222688		T4 2008	10/2008	13,79		Italia	-7,7			:			abr/98	abril/1998	2442803
LAS PALMAS	100	97,663604	92,86390188	92,64630633	93,00835887		35	LAS PALMAS	-7,353693672		12/02/2020	19235712		T1 2009	1/2009	17,24						:			may/98	mayo/1998	2369889
LEÓN	100	99,2473225	97,06128374	97,08609162	98,01117754		24	LEON	-2,91390838		13/02/2020	19244730		T2 2009	4/2009	17,77						:			jun/98	junio/1998	2332016
LLEIDA	100	98,50677713	96,13278716	98,93005703	101,678996		25	LLEIDA	-1,069942975		14/02/2020	19252285		T3 2009	7/2009	17,75									jul/98	julio/1998	2250015
LUGO	100	99,50021989	97,65372072	97,55991406	98,27067672		27	LUGO	-2,440085943		17/02/2020	19267062		T4 2009	10/2009	18,66									ago/98	agosto/1998	2235296
MADRID	100	98,41220922	95,77585978	95,56055845	95,41345329		28	MADRID	-4,439441547		18/02/2020	19274117		T1 2010	1/2010	19,84									sep/98	septiembre/1998	2256328
MÁLAGA	100	98,00062985	93,24966567	94,17082519	95,47789809		29	MALAGA	-5,829174814		19/02/2020	19281182		T2 2010	4/2010	19,89									oct/98	octubre/1998	2267925
MELILLA	100	99,67031508	96,73460385	94,30067052	94,03940615		52	MELILLA	-5,699329479		20/02/2020	19289207		T3 2010	7/2010	19,59									nov/98	noviembre/1998	2270240
MURCIA	100	99,66476436	97,41711587	99,26059299	98,74523936		31	MURCIA	-0,7394070082		21/02/2020	19284446		T4 2010	10/2010	20,11									dic/98	diciembre/1998	2233259
NAVARRA	100	99,35633693	97,70291227	97,83972963	97,08083736		32	NAVARRA	-2,160270373		24/02/2020	19310504		T1 2011	1/2011	21,08									ene/99	enero/1999	2251728
OURENSE	100	99,15108156	96,84087879	96,93484435	97,8382051		34	OURENSE	-3,065155652		25/02/2020	19313498		T2 2011	4/2011	20,64									feb/99	febrero/1999	2233082
PALENCIA	100	99,22396345	96,83405744	96,79367331	97,83887441		36	PALENCIA	-3,20632669		26/02/2020	19314949		T3 2011	7/2011	21,28									mar/99	marzo/1999	2202337
PONTEVEDRA	100	98,77093983	95,65083363	96,23905305	97,85100446		30	PONTEVEDRA	-3,760946946		27/02/2020	19304849		T4 2011	10/2011	22,56									abr/99	abril/1999	2144375
SALAMANCA	100	98,75938376	96,22883396	96,23551539	96,93978821		37	SALAMANCA	-3,764484609		28/02/2020	19279415		T1 2012	1/2012	24,19									may/99	mayo/1999	2076942
TENERIFE	100	97,44358025	92,7571555	92,83759497	93,54275592		38	SANTA CRUZ TENERIFE	-7,162405034		02/03/2020	19317663		T2 2012	4/2012	24,4									jun/99	junio/1999	2045950
SEGOVIA	100	99,66306664	97,95653795	97,50629476	98,79339764		40	SEGOVIA	-2,493705238		03/03/2020	19272866		T3 2012	7/2012	24,79									jul/99	julio/1999	1980957
SEVILLA	100	97,78691803	93,80223524	95,03284917	95,85737715		41	SEVILLA	-4,967150826		04/03/2020	19308608		T4 2012	10/2012	25,77									ago/99	agosto/1999	1980966
SORIA	100	99,49775439	97,65402828	97,76068673	98,46979831		42	SORIA	-2,239313274		05/03/2020	19319589		T1 2013	1/2013	26,94									sep/99	septiembre/1999	2002552
TARRAGONA	100	99,26048663	96,73265238	97,66895046	98,73213174		43	TARRAGONA	-2,331049539		06/03/2020	19314068		T2 2013	4/2013	26,06									oct/99	octubre/1999	2019968
TERUEL	100	99,80153063	97,84338496	98,68459116	100,0638251		44	TERUEL	-1,31540884		09/03/2020	19342767		T3 2013	7/2013	25,65									nov/99	noviembre/1999	2055809
TOLEDO	100	98,60811785	95,56670457	96,46229791	97,75266358		45	TOLEDO	-3,537702094		10/03/2020	19343026		T4 2013	10/2013	25,73									dic/99	diciembre/1999	2027982
VALENCIA	100	98,65724304	95,38182199	95,3240089	95,09571297		46	VALENCIA	-4,675991101		11/03/2020	19344258		T1 2014	1/2014	25,93									ene/00	enero/2000	2090035
VALLADOLID	100	98,72488278	95,98381379	96,23892806	97,03276623		47	VALLADOLID	-3,761071943		12/03/2020	19336071		T2 2014	4/2014	24,47									feb/00	febrero/2000	2079752
ZAMORA	100	99,44788395	97,38813043	97,46093577	98,95760816		49	ZAMORA	-2,53906423		13/03/2020	19259284		T3 2014	7/2014	23,67									mar/00	marzo/2000	2042332
ZARAGOZA	100	98,68284388	96,36301768	97,7664231	98,36211391		50	ZARAGOZA	-2,233576898		16/03/2020	19080715		T4 2014	10/2014	23,7									abr/00	abril/2000	1983994
											17/03/2020	18995729		T1 2015	1/2015	23,78									may/00	mayo/2000	1929028
											18/03/2020	18920190		T2 2015	4/2015	22,37									jun/00	junio/2000	1903053
											19/03/2020	18864361		T3 2015	7/2015	21,18									jul/00	julio/2000	1892683
											20/03/2020	18788935		T4 2015	10/2015	20,9									ago/00	agosto/2000	1888386
											23/03/2020	18719600		T1 2016	1/2016	21									sep/00	septiembre/2000	1908120
											24/03/2020	18686932		T2 2016	4/2016	20									oct/00	octubre/2000	1934130
											25/03/2020	18664340		T3 2016	7/2016	18,91									nov/00	noviembre/2000	1962794
											26/03/2020	18645844		T4 2016	10/2016	18,63									dic/00	diciembre/2000	1947242
											27/03/2020	18612822		T1 2017	1/2017	18,75									ene./01	enero/2001	2017389
											30/03/2020	18565607		T2 2017	4/2017	17,22									feb./01	febrero/2001	1993274
											31/03/2020	18445436		T3 2017	7/2017	16,38									mar./01	marzo/2001	1981006
											01/04/2020	18470660		T4 2017	10/2017	16,55									abr./01	abril/2001	1910453
											02/04/2020	18449957		T1 2018	1/2018	16,74									may./01	mayo/2001	1898285
											03/04/2020	18423850		T2 2018	4/2018	15,28									jun./01	junio/2001	1842556
											06/04/2020	18422371		T3 2018	7/2018	14,55									jul./01	julio/2001	1835738
											07/04/2020	18422101		T4 2018	10/2018	14,45									ago./01	agosto/2001	1878513
											08/04/2020	18413235		T1 2019	1/2019	14,7									sep/01	septiembre/2001	1889185
											13/04/2020	18423316		T2 2019	4/2019	14,02									oct./01	octubre/2001	1940909
											14/04/2020	18455661		T3 2019	7/2019	13,92									nov./01	noviembre/2001	1985857
											15/04/2020	18463413		T4 2019	10/2019	13,78									dic./01	diciembre/2001	1988715
											16/04/2020	18466784		T1 2020	1/2020	14,41									ene./02	enero/2002	2075022
											17/04/2020	18456537		T2 2020	4/2020	15,33									feb./02	febrero/2002	2149908
											20/04/2020	18476408		T3 2020											mar./02	marzo/2002	2083103
											21/04/2020	18482652		T4 2020											abr./02	abril/2002	2060070
											22/04/2020	18486282													may./02	mayo/2002	2002924
											23/04/2020	18490241													jun./02	junio/2002	1962963
											24/04/2020	18480673													jul./02	julio/2002	1961852
											27/04/2020	18494205													ago./02	agosto/2002	1983982
											28/04/2020	18498378													sep/02	septiembre/2002	2006786
											29/04/2020	18500250													oct./02	octubre/2002	2064512
											30/04/2020	18396362													nov./02	noviembre/2002	2117144
											04/05/2020	18479862													dic./02	diciembre/2002	2127018
											05/05/2020	18496586													ene./03	enero/2003	2185156
											06/05/2020	18507039													feb./03	febrero/2003	2180216
											07/05/2020	18513251													mar./03	marzo/2003	2163498
											08/05/2020	18506641													abr./03	abril/2003	2104475
											11/05/2020	18538144													may./03	mayo/2003	2035601
											12/05/2020	18546658													jun./03	junio/2003	2020367
											13/05/2020	18550346													jul./03	julio/2003	1995964
											14/05/2020	18550999													ago./03	agosto/2003	2016675
											15/05/2020	18538117													sep/03	septiembre/2003	2039630
											18/05/2020	18567497													oct./03	octubre/2003	2096606
											19/05/2020	18575845													nov./03	noviembre/2003	2143206
											20/05/2020	18581845													dic./03	diciembre/2003	2181248
											21/05/2020	18586088													ene./04	enero/2004	2232560
											22/05/2020	18577040													feb./04	febrero/2004	2219300
											25/05/2020	18599696													mar./04	marzo/2004	2181546
											26/05/2020	18606011													abr./04	abril/2004	2162405
											27/05/2020	18608596													may./04	mayo/2004	2090702
											28/05/2020	18608140													jun./04	junio/2004	2054113
											29/05/2020	18584176													jul./04	julio/2004	2014218
											01/06/2020	18593260													ago./04	agosto/2004	2049639
											02/06/2020	18596186													sep/04	septiembre/2004	2050514
											03/06/2020	18592623													oct./04	octubre/2004	2075811
											04/06/2020	18597021													nov./04	noviembre/2004	2121089
											05/06/2020	18589284													dic./04	diciembre/2004	2112715
											08/06/2020	18623071													ene./05	enero/2005	2176599
											09/06/2020	18631548													feb./05	febrero/2005	2165420
											10/06/2020	18638993													mar./05	marzo/2005	2144835
											11/06/2020	18643383													abr./05	abril/2005	2095945
											12/06/2020	18631814													may./05	mayo/2005	2007393
											15/06/2020	18668725													jun./05	junio/2005	1974860
											16/06/2020	18684873													jul./05	julio/2005	1989417
											17/06/2020	18684590													ago./05	agosto/2005	2019110
											18/06/2020	18681594													sep/05	septiembre/2005	2013286
											19/06/2020	18634728													oct./05	octubre/2005	2052861
											22/06/2020	18633805													nov./05	noviembre/2005	2095580
											23/06/2020	18621455													dic./05	diciembre/2005	2102937
											24/06/2020	18622765													ene./06	enero/2006	2171503
											25/06/2020	18623083													feb./06	febrero/2006	2169277
											26/06/2020	18612566													mar./06	marzo/2006	2148530
											29/06/2020	18645770													abr./06	abril/2006	2075676
											30/06/2020	18484270													may./06	mayo/2006	2004528
																									jun./06	junio/2006	1959754
																									jul./06	julio/2006	1954984
																									ago./06	agosto/2006	1983677
																									sep/06	septiembre/2006	1966166
																									oct./06	octubre/2006	1992836
																									nov./06	noviembre/2006	2023164
																									dic./06	diciembre/2006	2022873
																									ene./07	enero/2007	2082508
																									feb./07	febrero/2007	2075275
																									mar./07	marzo/2007	2059451
																									abr./07	abril/2007	2023124
																									may./07	mayo/2007	1973231
																									jun./07	junio/2007	1965869
																									jul./07	julio/2007	1970338
																									ago./07	agosto/2007	2028296
																									sep/07	septiembre/2007	2017363
																									oct./07	octubre/2007	2048577
																									nov./07	noviembre/2007	2094473
																									dic./07	diciembre/2007	2129547
																									ene./08	enero/2008	2261925
																									feb./08	febrero/2008	2315331
																									mar./08	marzo/2008	2300975
																									abr./08	abril/2008	2338517
																									may./08	mayo/2008	2353575
																									jun./08	junio/2008	2390424
																									jul./08	julio/2008	2426916
																									ago./08	agosto/2008	2530001
																									sep/08	septiembre/2008	2625368
																									oct./08	octubre/2008	2818026
																									nov./08	noviembre/2008	2989269
																									dic./08	diciembre/2008	3128963
																									ene./09	enero/2009	3327801
																									feb./09	febrero/2009	3481859
																									mar./09	marzo/2009	3605402
																									abr./09	abril/2009	3644880
																									may./09	mayo/2009	3620139
																									jun./09	junio/2009	3564889
																									jul./09	julio/2009	3544095
																									ago./09	agosto/2009	3629080
																									sep/09	septiembre/2009	3709447
																									oct./09	octubre/2009	3808353
																									nov./09	noviembre/2009	3868946
																									dic./09	diciembre/2009	3923603
																									ene./10	enero/2010	4048493
																									feb./10	febrero/2010	4130625
																									mar./10	marzo/2010	4166613
																									abr./10	abril/2010	4142425
																									may./10	mayo/2010	4066202
																									jun./10	junio/2010	3982368
																									jul./10	julio/2010	3908578
																									ago./10	agosto/2010	3969661
																									sep/10	septiembre/2010	4017763
																									oct./10	octubre/2010	4085976
																									nov./10	noviembre/2010	4110294
																									dic./10	diciembre/2010	4100073
																									ene./11	enero/2011	4231003
																									feb./11	febrero/2011	4299263
																									mar./11	marzo/2011	4333669
																									abr./11	abril/2011	4269360
																									may./11	mayo/2011	4189659
																									jun./11	junio/2011	4121801
																									jul./11	julio/2011	4079742
																									ago./11	agosto/2011	4130927
																									sep/11	septiembre/2011	4226744
																									oct./11	octubre/2011	4360926
																									nov./11	noviembre/2011	4420462
																									dic./11	diciembre/2011	4422359
																									ene./12	enero/2012	4599829
																									feb./12	febrero/2012	4712098
																									mar./12	marzo/2012	4750867
																									abr./12	abril/2012	4744235
																									may./12	mayo/2012	4714122
																									jun./12	junio/2012	4615269
																									jul./12	julio/2012	4587455
																									ago./12	agosto/2012	4625634
																									sep/12	septiembre/2012	4705279
																									oct./12	octubre/2012	4833521
																									nov./12	noviembre/2012	4907817
																									dic./12	diciembre/2012	4848723
																									ene./13	enero/2013	4980778
																									feb./13	febrero/2013	5040222
																									mar./13	marzo/2013	5035243
																									abr./13	abril/2013	4989193
																									may./13	mayo/2013	4890928
																									jun./13	junio/2013	4763680
																									jul./13	julio/2013	4698814
																									ago./13	agosto/2013	4698783
																									sep/13	septiembre/2013	4724355
																									oct./13	octubre/2013	4811383
																									nov./13	noviembre/2013	4808908
																									dic./13	diciembre/2013	4701338
																									ene./14	enero/2014	4814435
																									feb./14	febrero/2014	4812486
																									mar./14	marzo/2014	4795866
																									abr./14	abril/2014	4684301
																									may./14	mayo/2014	4572385
																									jun./14	junio/2014	4449701
																									jul./14	julio/2014	4419860
																									ago./14	agosto/2014	4427930
																									sep/14	septiembre/2014	4447650
																									oct./14	octubre/2014	4526804
																									nov./14	noviembre/2014	4512116
																									dic./14	diciembre/2014	4447711
																									ene./15	enero/2015	4525691
																									feb./15	febrero/2015	4512153
																									mar./15	marzo/2015	4451939
																									abr./15	abril/2015	4333016
																									may./15	mayo/2015	4215031
																									jun./15	junio/2015	4120304
																									jul./15	julio/2015	4046276
																									ago./15	agosto/2015	4067955
																									sep/15	septiembre/2015	4094042
																									oct./15	octubre/2015	4176369
																									nov./15	noviembre/2015	4149298
																									dic./15	diciembre/2015	4093508
																									ene./16	enero/2016	4150755
																									feb./16	febrero/2016	4152986
																									mar./16	marzo/2016	4094770
																									abr./16	abril/2016	4011171
																									may./16	mayo/2016	3891403
																									jun./16	junio/2016	3767054
																									jul./16	julio/2016	3683061
																									ago./16	agosto/2016	3697496
																									sep/16	septiembre/2016	3720297
																									oct./16	octubre/2016	3764982
																									nov./16	noviembre/2016	3789823
																									dic./16	diciembre/2016	3702974
																									ene./17	enero/2017	3760231
																									feb./17	febrero/2017	3750876
																									mar./17	marzo/2017	3702317
																									abr./17	abril/2017	3573036
																									may./17	mayo/2017	3461128
																									jun./17	junio/2017	3362811
																									jul./17	julio/2017	3335924
																									ago./17	agosto/2017	3382324
																									sep/17	septiembre/2017	3410182
																									oct./17	octubre/2017	3467026
																									nov./17	noviembre/2017	3474281
																									dic./17	diciembre/2017	3412781
																									ene./18	enero/2018	3476528
																									feb./18	febrero/2018	3470248
																									mar./18	marzo/2018	3422551
																									abr./18	abril/2018	3335868
																									may./18	mayo/2018	3252130
																									jun./18	junio/2018	3162162
																									jul./18	julio/2018	3135021
																									ago./18	agosto/2018	3182068
																									sep/18	septiembre/2018	3202509
																									oct./18	octubre/2018	3254703
																									nov./18	noviembre/2018	3252867
																									dic./18	diciembre/2018	3202297
																									ene./19	enero/2019	3285761
																									feb./19	febrero/2019	3289040
																									mar./19	marzo/2019	3255084
																									abr./19	abril/2019	3163566
																									may./19	mayo/2019	3079491
																									jun./19	junio/2019	3015686
																									jul./19	julio/2019	3011433
																									ago./19	agosto/2019	3065804
																									sep/19	septiembre/2019	3079711
																									oct./19	octubre/2019	3177659
																									nov./19	noviembre/2019	3198184
																									dic./19	diciembre/2019	3163605
																									ene./20	enero/2020	3253853
																									feb./20	febrero/2020	3246047
																									mar./20	marzo/2020	3548312
																									abr./20	abril/2020	3831203
																									may./20	mayo/2020	3857776
																									jun./20	junio/2020	3862883