Variación trimestral del PIB de España, en porcentaje				Variación trimestral de la inversión productiva (bienes de equipo), en porcentaje				Variación trimestral del PIB en porcentaje (primer trimestre)				Variación del número de empresas activas con trabajadores desde febrero de 2020, en porcentaje (hasta junio)				Variación interanual de la producción industrial, en porcentaje (dato mayo)					Correlación entre la variación del PIB y el empleo		
PIB crecimiento trimestral				Inversión productiva				PIB eurozona				Empresas activas				Producción industrial					Relación PIB/empleo		
Fuente: INE				Fuente: INE				Fuente: Eurostat				Fuente: Seguridad Social				Fuente: INE					Fuente: INE		
Trimestre_PIB	Trimestre_PIB_Generico	PIB		Trimestre_IP	Trimestre_IP_Generico	IP		PAIS	Primer trimestre	Segundo trimestre		ID_PROVINCIA	Provincia	Cambio_desde_inicio_crisis		ID_CCAA	CCAA	PI			Trimestre_Correlacion	PIB_Correlacion	Horas_efectivas
T2 1995	4/1995	0,6202		T2 1995	4/1995	2,1959		Eslovaquia	:	:		15	A Coruña	-7,976212951		1	Andalucía	-11,8			T2 1995	0,6202	-0,1633
T3 1995	7/1995	0,4037		T3 1995	7/1995	2,2072		Irlanda	1,2	:		3	Alacant - Alicante	-5,690104548		2	Aragón	-8,8			T3 1995	0,4037	-0,3387
T4 1995	10/1995	0,7599		T4 1995	10/1995	2,4345		Lituania	-0,3	-5,1		2	Albacete	-8,055507819		3	Asturias	-17,8			T4 1995	0,7599	-0,7445
T1 1996	1/1996	0,5912		T1 1996	1/1996	1,5195		Chipre	-1,3	:		4	Almería	-8,838832589		4	Baleares	-29,3			T1 1996	0,5912	0,2136
T2 1996	4/1996	0,7383		T2 1996	4/1996	2,476		P. Bajos	-1,5	:		1	Araba/Alava	-1,469659769		5	Canarias	-13,1			T2 1996	0,7383	0,994
T3 1996	7/1996	0,8568		T3 1996	7/1996	3,3319		Grecia	-1,6	:		33	Asturias	-6,537926025		6	Cantabria	-8,6			T3 1996	0,8568	1,7007
T4 1996	10/1996	0,5336		T4 1996	10/1996	0,503		Finlandia	-1,9	:		5	Avila	-3,082029398		7	Castilla y León	-10,8			T4 1996	0,5336	1,9498
T1 1997	1/1997	1,0151		T1 1997	1/1997	4,1117		Alemania	-2	-10,1		6	Badajoz	-4,791590954		8	Castilla - La Mancha	-11,8			T1 1997	1,0151	0,4559
T2 1997	4/1997	0,9072		T2 1997	4/1997	2,6783		Malta	-2,3	:		8	Barcelona	-5,319329155		9	Cataluña	-10,3			T2 1997	0,9072	-0,3863
T3 1997	7/1997	1,1895		T3 1997	7/1997	4,5188		Austria	-2,4	-10,7		48	Bizkaia	-3,934336023		10	Comunitat Valenciana	-5,8			T3 1997	1,1895	1,5669
T4 1997	10/1997	1,3788		T4 1997	10/1997	3,4708		Letonia	-2,9	:		9	Burgos	-3,657477402		11	Extremadura	-21,6			T4 1997	1,3788	1,3341
T1 1998	1/1998	0,8762		T1 1998	1/1998	5,8127		Luxemburgo	-2,9	:		10	Cáceres	-5,553414893		12	Galicia	-10,6			T1 1998	0,8762	0,525
T2 1998	4/1998	1,1279		T2 1998	4/1998	1,4924		UE	-3,2	-11,7		11	Cádiz	-4,64504284		13	Madrid, Comunidad de	-7,7			T2 1998	1,1279	1,7954
T3 1998	7/1998	0,945		T3 1998	7/1998	2,8507		Bélgica	-3,5	:		39	Cantabria	-6,911883589		14	Murcia, Región de	5,8			T3 1998	0,945	2,7256
T4 1998	10/1998	1,0982		T4 1998	10/1998	2,9729		Eurozona	-3,6	-12,1		12	Castellón	-9,930915371		15	Navarra, Comunidad Foral de	-6,1			T4 1998	1,0982	-0,4614
T1 1999	1/1999	0,9985		T1 1999	1/1999	1,8989		Estonia	-3,7	:		51	Ceuta	-4,444444444		16	País Vasco	-11,2			T1 1999	0,9985	1,2948
T2 1999	4/1999	1,1861		T2 1999	4/1999	3,1845		Portugal	-3,8	:		13	Ciudad Real	-3,422672945		17	La Rioja	-19,7			T2 1999	1,1861	3,101
T3 1999	7/1999	1,3298		T3 1999	7/1999	2,4726		Eslovenia	-4,5	:		14	Córdoba	-8,280542986							T3 1999	1,3298	-1,4064
T4 1999	10/1999	1,1339		T4 1999	10/1999	1,7209		España	-5,2	-18,5		16	Cuenca	-9,270977109							T4 1999	1,1339	1,7815
T1 2000	1/2000	1,5998		T1 2000	1/2000	2,9377		Italia	-5,4	-12,4		20	Gipuzkoa	-4,128658952							T1 2000	1,5998	2,3552
T2 2000	4/2000	1,2524		T2 2000	4/2000	1,0629		Francia	-5,9	-13,8		17	Girona	-4,368905595							T2 2000	1,2524	0,4284
T3 2000	7/2000	1,0792		T3 2000	7/2000	1,2933						18	Granada	-4,539641944							T3 2000	1,0792	0,5062
T4 2000	10/2000	1,0306		T4 2000	10/2000	1,2712						19	Guadalajara	-7,256235828							T4 2000	1,0306	1,5051
T1 2001	1/2001	1,0614		T1 2001	1/2001	-1,7587						21	Huelva	-7,225539368							T1 2001	1,0614	1,3986
T2 2001	4/2001	0,7393		T2 2001	4/2001	-0,0958						22	Huesca	-5,111343596							T2 2001	0,7393	0,1207
T3 2001	7/2001	0,9319		T3 2001	7/2001	-2,5475						7	Illes Balears	-8,150908244							T3 2001	0,9319	1,2471
T4 2001	10/2001	0,6922		T4 2001	10/2001	-1,0786						23	Jaén	-3,507088797							T4 2001	0,6922	0,4808
T1 2002	1/2002	0,4253		T1 2002	1/2002	-0,8958						26	La Rioja	-2,849441663							T1 2002	0,4253	0,7583
T2 2002	4/2002	0,815		T2 2002	4/2002	-0,4111						35	Las Palmas	-5,936372581							T2 2002	0,815	0,2954
T3 2002	7/2002	0,6166		T3 2002	7/2002	0,4946						24	León	-5,392674409							T3 2002	0,6166	0,3913
T4 2002	10/2002	0,7604		T4 2002	10/2002	1,9283						25	Lleida	-6,491893756							T4 2002	0,7604	1,4411
T1 2003	1/2003	0,931		T1 2003	1/2003	-0,5595						27	Lugo	-4,260578741							T1 2003	0,931	0,2723
T2 2003	4/2003	0,5209		T2 2003	4/2003	1,1432						28	Madrid	-3,368999422							T2 2003	0,5209	0,2634
T3 2003	7/2003	0,6594		T3 2003	7/2003	1,0412						29	Málaga	-5,134084339							T3 2003	0,6594	0,8451
T4 2003	10/2003	0,8643		T4 2003	10/2003	3,6164						52	Melilla	-8,969057465							T4 2003	0,8643	1,6401
T1 2004	1/2004	0,6032		T1 2004	1/2004	-0,6898						31	Navarra	-9,4201369							T1 2004	0,6032	-0,0441
T2 2004	4/2004	0,9772		T2 2004	4/2004	0,7556						32	Ourense	-3,065590641							T2 2004	0,9772	0,9977
T3 2004	7/2004	0,9403		T3 2004	7/2004	5,2418						34	Palencia	-3,816633372							T3 2004	0,9403	0,1697
T4 2004	10/2004	0,6843		T4 2004	10/2004	-0,6454						36	Pontevedra	-5,554628857							T4 2004	0,6843	1,0685
T1 2005	1/2005	0,9761		T1 2005	1/2005	3,3089						30	Murcia	4,334040633							T1 2005	0,9761	-0,013
T2 2005	4/2005	0,8824		T2 2005	4/2005	2,9891						37	Salamanca	-6,222827005							T2 2005	0,8824	2,5168
T3 2005	7/2005	0,9667		T3 2005	7/2005	0,7461						38	S. C. de Tenerife	-3,632478632							T3 2005	0,9667	-0,1127
T4 2005	10/2005	1,014		T4 2005	10/2005	0,526						40	Segovia	-4,10161195							T4 2005	1,014	1,0747
T1 2006	1/2006	1,1451		T1 2006	1/2006	3,7039						41	Sevilla	-4,247272727							T1 2006	1,1451	1,5476
T2 2006	4/2006	0,9692		T2 2006	4/2006	3,4988						42	Soria	-2,870442203							T2 2006	0,9692	-0,0665
T3 2006	7/2006	0,9291		T3 2006	7/2006	0,5368						43	Tarragona	-5,115089514							T3 2006	0,9291	1,3878
T4 2006	10/2006	0,9615		T4 2006	10/2006	3,3529						44	Teruel	-4,137481675							T4 2006	0,9615	-0,39
T1 2007	1/2007	0,9148		T1 2007	1/2007	3,2273						45	Toledo	-4,193738925							T1 2007	0,9148	1,2657
T2 2007	4/2007	0,8965		T2 2007	4/2007	0,5932						46	Valencia	-5,884129765							T2 2007	0,8965	0,5507
T3 2007	7/2007	0,7665		T3 2007	7/2007	1,1489						47	Valladolid	-4,137095378							T3 2007	0,7665	0,7993
T4 2007	10/2007	0,6428		T4 2007	10/2007	0,8154						49	Zamora	-2,324406266							T4 2007	0,6428	-0,0196
T1 2008	1/2008	0,2159		T1 2008	1/2008	-1,0417						50	Zaragoza	-11,69244768							T1 2008	0,2159	0,725
T2 2008	4/2008	0,1092		T2 2008	4/2008	1,639															T2 2008	0,1092	0,2111
T3 2008	7/2008	-0,1841		T3 2008	7/2008	-5,0682															T3 2008	-0,1841	-1,3337
T4 2008	10/2008	-1,614		T4 2008	10/2008	-10,0615															T4 2008	-1,614	-0,4191
T1 2009	1/2009	-2,6056		T1 2009	1/2009	-14,7696															T1 2009	-2,6056	-3,5879
T2 2009	4/2009	-0,0108		T2 2009	4/2009	-8,0739															T2 2009	-0,0108	-1,5443
T3 2009	7/2009	0,2113		T3 2009	7/2009	4,511															T3 2009	0,2113	-0,7516
T4 2009	10/2009	-0,0203		T4 2009	10/2009	0,2045															T4 2009	-0,0203	-0,3509
T1 2010	1/2010	-0,0281		T1 2010	1/2010	1,6193															T1 2010	-0,0281	-1,1471
T2 2010	4/2010	0,1497		T2 2010	4/2010	1,8131															T2 2010	0,1497	1,0436
T3 2010	7/2010	-0,0511		T3 2010	7/2010	2,1802															T3 2010	-0,0511	-1,2412
T4 2010	10/2010	0,0672		T4 2010	10/2010	0,5512															T4 2010	0,0672	-1,2592
T1 2011	1/2011	-0,1559		T1 2011	1/2011	-1,7338															T1 2011	-0,1559	0,8736
T2 2011	4/2011	-0,317		T2 2011	4/2011	-2,0979															T2 2011	-0,317	-1,6232
T3 2011	7/2011	-0,6481		T3 2011	7/2011	1,985															T3 2011	-0,6481	-0,6307
T4 2011	10/2011	-0,6484		T4 2011	10/2011	-1,9487															T4 2011	-0,6484	-1,1839
T1 2012	1/2012	-0,9375		T1 2012	1/2012	-0,8717															T1 2012	-0,9375	-1,3644
T2 2012	4/2012	-0,961		T2 2012	4/2012	-4,2982															T2 2012	-0,961	-1,5805
T3 2012	7/2012	-0,5099		T3 2012	7/2012	-3,4295															T3 2012	-0,5099	-0,6134
T4 2012	10/2012	-0,7625		T4 2012	10/2012	-1,7838															T4 2012	-0,7625	-1,6706
T1 2013	1/2013	-0,3195		T1 2013	1/2013	2,0049															T1 2013	-0,3195	-0,6166
T2 2013	4/2013	-0,0875		T2 2013	4/2013	2,2534															T2 2013	-0,0875	-0,4476
T3 2013	7/2013	-0,0548		T3 2013	7/2013	4,7105															T3 2013	-0,0548	-0,1674
T4 2013	10/2013	0,1667		T4 2013	10/2013	2,6099															T4 2013	0,1667	0,5594
T1 2014	1/2014	0,3673		T1 2014	1/2014	0,1624															T1 2014	0,3673	-0,1466
T2 2014	4/2014	0,4635		T2 2014	4/2014	0,1165															T2 2014	0,4635	0,7672
T3 2014	7/2014	0,7401		T3 2014	7/2014	-0,676															T3 2014	0,7401	0,277
T4 2014	10/2014	0,8583		T4 2014	10/2014	3,1291															T4 2014	0,8583	1,1546
T1 2015	1/2015	1,1474		T1 2015	1/2015	2,017															T1 2015	1,1474	0,1956
T2 2015	4/2015	1,073		T2 2015	4/2015	5,8748															T2 2015	1,073	1,3303
T3 2015	7/2015	0,91		T3 2015	7/2015	-0,44															T3 2015	0,91	0,7244
T4 2015	10/2015	0,9688		T4 2015	10/2015	2,3919															T4 2015	0,9688	0,9441
T1 2016	1/2016	0,6778		T1 2016	1/2016	-1,4908															T1 2016	0,6778	0,6777
T2 2016	4/2016	0,4196		T2 2016	4/2016	0,6813															T2 2016	0,4196	0,179
T3 2016	7/2016	0,8869		T3 2016	7/2016	-1,4145															T3 2016	0,8869	0,5566
T4 2016	10/2016	0,4645		T4 2016	10/2016	2,1072															T4 2016	0,4645	0,2341
T1 2017	1/2017	0,7545		T1 2017	1/2017	5,6094															T1 2017	0,7545	0,6504
T2 2017	4/2017	1,0278		T2 2017	4/2017	-1,4669															T2 2017	1,0278	0,4954
T3 2017	7/2017	0,5329		T3 2017	7/2017	4,5249															T3 2017	0,5329	0,6546
T4 2017	10/2017	0,6898		T4 2017	10/2017	2,2729															T4 2017	0,6898	0,3052
T1 2018	1/2018	0,492		T1 2018	1/2018	-2,9181															T1 2018	0,492	0,6595
T2 2018	4/2018	0,5452		T2 2018	4/2018	8,4311															T2 2018	0,5452	1,2527
T3 2018	7/2018	0,5015		T3 2018	7/2018	-0,8287															T3 2018	0,5015	0,4286
T4 2018	10/2018	0,5599		T4 2018	10/2018	-2,832															T4 2018	0,5599	0,2373
T1 2019	1/2019	0,5683		T1 2019	1/2019	3,6118															T1 2019	0,5683	0,5813
T2 2019	4/2019	0,3803		T2 2019	4/2019	-2,3687															T2 2019	0,3803	0,0695
T3 2019	7/2019	0,4047		T3 2019	7/2019	4,1786															T3 2019	0,4047	-0,07
T4 2019	10/2019	0,4104		T4 2019	10/2019	-2,6478															T4 2019	0,4104	0,8265
T1 2020	1/2020	-5,2091		T1 2020	1/2020	-8,3839															T1 2020	-5,2091	-5,0116
T2 2020	4/2020	-18,4839		T2 2020	4/2020	-27,1738															T2 2020	-18,4839	-21,4145
T3 2020				T3 2020																			
T4 2020				T4 2020																			