<?xml version="1.0" encoding="UTF-8"?>
<svg width="32px" height="32px" viewBox="0 0 32 32" version="1.1" xmlns="http://www.w3.org/2000/svg" xmlns:xlink="http://www.w3.org/1999/xlink">
    <!-- Generator: Sketch 57.1 (83088) - https://sketch.com -->
    <title>02 Componentes / 00 Botones / 01 Primario / 05 Pequeño sólo icono / 02 Hover Copy 3</title>
    <desc>Created with Sketch.</desc>
    <g id="Componentes" stroke="none" stroke-width="1" fill="none" fill-rule="evenodd">
        <g id="Colores" transform="translate(-198.000000, -799.000000)">
            <g id="02-Componentes-/-00-Botones-/-01-Primario-/-05-Pequeño-sólo-icono-/-02-Hover-Copy-3" transform="translate(198.000000, 799.000000)">
                <g id="02-Componentes-/-00-Botones-/-01-Primario-/-05-Pequeño-sólo-icono-/-02-Hover">
                    <rect id="Rectangle-Copy-3" fill="#FFE68C" fill-rule="nonzero" x="0" y="0" width="32" height="32" rx="2"></rect>
                    <g id="01-Fragmentos-/-01-Icon-/-24px-/-Arrow-forward-solid" transform="translate(4.000000, 4.000000)">
                        <g id="01-Fragment-/-Icon-/-24px-/-Arrow-forward-solid">
                            <rect id="Rectangle" x="0" y="0" width="24" height="24"></rect>
                            <path d="M16,8.20710678 L16,11 L16,11 L3,11 L3,13 L16,13 L16,15.7928932 C16,16.0690356 16.2238576,16.2928932 16.5,16.2928932 C16.6326082,16.2928932 16.7597852,16.2402148 16.8535534,16.1464466 L21,12 L21,12 L16.8535534,7.85355339 C16.6582912,7.65829124 16.3417088,7.65829124 16.1464466,7.85355339 C16.0526784,7.94732158 16,8.07449854 16,8.20710678 Z" id="shape" fill-opacity="0.7" fill="#000000"></path>
                        </g>
                    </g>
                </g>
            </g>
        </g>
    </g>
</svg>